Introdução ao R - Aula 4
…
3
23
3
“RJ”

Usando o tidyverse, implementamos joins passando o nome das duas bases e as variáveis em comum (as chaves):

base_final <- left_join(dados, ufs, by = join_by(id_city == cod_ibge))
base_final

# A tibble: 1,199 × 21
   party_name       age college female  term id_city broad narrow fraction_broad
   <chr>          <dbl>   <dbl>  <dbl> <dbl>   <dbl> <dbl>  <dbl>          <dbl>
 1 "PARTIDO DA S…    47       1      0  2001 1200013     1      0          0.953
 2 "PARTIDO PROG…    38       1      0  2001 1200252     0      0          0    
 3 "PARTIDO PROG…    52       1      0  2001 1200336     1      1         22.4  
 4 "PARTIDO DO M…    37       0      0  2001 1200351     0      0          0    
 5 "PARTIDO DA S…    45       0      0  2001 1200385     0      0          0    
 6 "PARTIDO DOS …    46       0      0  2001 1200708     1      0          0    
 7 "PARTIDO DO M…    47       0      0  2001 2700102     1      1          5.80 
 8 "PARTIDO SOCI…    47       1      0  2001 2700706     1      1          5.66 
 9 "PARTIDO PROG…    58       0      0  2001 2701407     1      0          0    
10 "PARTIDO DA F…    66       0      0  2001 2701902     1      0          0    
# ℹ 1,189 more rows
# ℹ 12 more variables: fraction_narrow <dbl>, pop <dbl>, literacy <dbl>,
#   urb <dbl>, income <dbl>, regions <dbl>, close <dbl>, closenocollege <dbl>,
#   closecollege <dbl>, UF <chr>, nome_2018 <chr>, area_km2 <dbl>

No código acima, declaramos que quais variáveis são comuns nas duas bases (isto é, quais têm valores com correspondentes em uma e outra bases) com a função join_by, usando o nome das variáveis iguais e usando ==. Para o caso de inner_join (o mesmo vale para full_join), o código é praticamente o mesmo:

inner_join(dados, ufs, by = join_by(id_city == cod_ibge))

# A tibble: 1,199 × 21
   party_name       age college female  term id_city broad narrow fraction_broad
   <chr>          <dbl>   <dbl>  <dbl> <dbl>   <dbl> <dbl>  <dbl>          <dbl>
 1 "PARTIDO DA S…    47       1      0  2001 1200013     1      0          0.953
 2 "PARTIDO PROG…    38       1      0  2001 1200252     0      0          0    
 3 "PARTIDO PROG…    52       1      0  2001 1200336     1      1         22.4  
 4 "PARTIDO DO M…    37       0      0  2001 1200351     0      0          0    
 5 "PARTIDO DA S…    45       0      0  2001 1200385     0      0          0    
 6 "PARTIDO DOS …    46       0      0  2001 1200708     1      0          0    
 7 "PARTIDO DO M…    47       0      0  2001 2700102     1      1          5.80 
 8 "PARTIDO SOCI…    47       1      0  2001 2700706     1      1          5.66 
 9 "PARTIDO PROG…    58       0      0  2001 2701407     1      0          0    
10 "PARTIDO DA F…    66       0      0  2001 2701902     1      0          0    
# ℹ 1,189 more rows
# ℹ 12 more variables: fraction_narrow <dbl>, pop <dbl>, literacy <dbl>,
#   urb <dbl>, income <dbl>, regions <dbl>, close <dbl>, closenocollege <dbl>,
#   closecollege <dbl>, UF <chr>, nome_2018 <chr>, area_km2 <dbl>

Agora, tendo incorporado a sigla dos estados da base ufs na base dados, conseguimos saber a média o percentual de recursos examinados pela CGU e que foram considerados como envoltos em corrupção (na variável fraction_narrow) por UF. Para isso, basta usar group_by e summarise conjuntamente na base_final que criamos a partir da combinação de duas outras:

base_final %>%
  group_by(UF) %>%
  summarise(media_corrupcao = mean(fraction_narrow, na.rm = T))

# A tibble: 26 × 2
   UF    media_corrupcao
   <chr>           <dbl>
 1 AC              2.32 
 2 AL              2.38 
 3 AM              2.28 
 4 AP              0.221
 5 BA              4.36 
 6 CE              1.36 
 7 ES              1.02 
 8 GO              1.34 
 9 MA              1.84 
10 MG              1.82 
# ℹ 16 more rows
…
O código não é intuitivo e merece explicações. Em primeiro lugar, nitidamente estamos criando uma variável, regiao, mas ela é o resultado da função case_when, que usamos para verificar em qual das condições a variável UF se enquadra. Particularmente, usamos %in% para verificar se o valor de UF está em algum dos estados listados e, quando uma condição é atendida, case_when atribui o nome da região correspondente, que indicamos depois do símbolo ~. A última linha TRUE ~ "NA" serve como uma condição padrão, caso a UF não esteja em nenhuma das listas de estados.

Poderíamos adaptar o exemplo pra classificar apenas estados como pertencentes ou não ao Sudeste:

base_final %>%
  mutate(regiao = case_when(
    UF %in% c("ES", "MG", "RJ", "SP") ~ "Sudeste",
    TRUE ~ "Outras regiões"
  ))

# A tibble: 1,199 × 22
   party_name       age college female  term id_city broad narrow fraction_broad
   <chr>          <dbl>   <dbl>  <dbl> <dbl>   <dbl> <dbl>  <dbl>          <dbl>
 1 "PARTIDO DA S…    47       1      0  2001 1200013     1      0          0.953
 2 "PARTIDO PROG…    38       1      0  2001 1200252     0      0          0    
 3 "PARTIDO PROG…    52       1      0  2001 1200336     1      1         22.4  
 4 "PARTIDO DO M…    37       0      0  2001 1200351     0      0          0    
 5 "PARTIDO DA S…    45       0      0  2001 1200385     0      0          0    
 6 "PARTIDO DOS …    46       0      0  2001 1200708     1      0          0    
 7 "PARTIDO DO M…    47       0      0  2001 2700102     1      1          5.80 
 8 "PARTIDO SOCI…    47       1      0  2001 2700706     1      1          5.66 
 9 "PARTIDO PROG…    58       0      0  2001 2701407     1      0          0    
10 "PARTIDO DA F…    66       0      0  2001 2701902     1      0          0    
# ℹ 1,189 more rows
# ℹ 13 more variables: fraction_narrow <dbl>, pop <dbl>, literacy <dbl>,
#   urb <dbl>, income <dbl>, regions <dbl>, close <dbl>, closenocollege <dbl>,
#   closecollege <dbl>, UF <chr>, nome_2018 <chr>, area_km2 <dbl>, regiao <chr>

Mas, nesse caso particular, ifelse é mais adequada – ela justamente serve para testar uma única condição e, se ela é verdadeira, retorna um valor; caso não, retorna outro:

base_final %>%
  mutate(regiao = ifelse(UF %in% c("ES", "MG", "RJ", "SP"), "Sudeste", "Outros"))

# A tibble: 1,199 × 22
   party_name       age college female  term id_city broad narrow fraction_broad
   <chr>          <dbl>   <dbl>  <dbl> <dbl>   <dbl> <dbl>  <dbl>          <dbl>
 1 "PARTIDO DA S…    47       1      0  2001 1200013     1      0          0.953
 2 "PARTIDO PROG…    38       1      0  2001 1200252     0      0          0    
 3 "PARTIDO PROG…    52       1      0  2001 1200336     1      1         22.4  
 4 "PARTIDO DO M…    37       0      0  2001 1200351     0      0          0    
 5 "PARTIDO DA S…    45       0      0  2001 1200385     0      0          0    
 6 "PARTIDO DOS …    46       0      0  2001 1200708     1      0          0    
 7 "PARTIDO DO M…    47       0      0  2001 2700102     1      1          5.80 
 8 "PARTIDO SOCI…    47       1      0  2001 2700706     1      1          5.66 
 9 "PARTIDO PROG…    58       0      0  2001 2701407     1      0          0    
10 "PARTIDO DA F…    66       0      0  2001 2701902     1      0          0    
# ℹ 1,189 more rows
# ℹ 13 more variables: fraction_narrow <dbl>, pop <dbl>, literacy <dbl>,
#   urb <dbl>, income <dbl>, regions <dbl>, close <dbl>, closenocollege <dbl>,
#   closecollege <dbl>, UF <chr>, nome_2018 <chr>, area_km2 <dbl>, regiao <chr>
…
