Introdução ao R - Aula 2
…
# A tibble: 3 × 10
   ...1 uf    municipio       populacao total_despesas despesas_legislativas
  <dbl> <chr> <chr>               <dbl>          <dbl>                 <dbl>
1     8 MG    Aguanil              4129      11269795                376652 
2     9 MG    Aguas Formosas      18575      23760572.              1104696.
3    10 MG    Aguas Vermelhas     12850      16591827.               664422.
# ℹ 4 more variables: despesas_administrativas <dbl>, despesas_seguranca <dbl>,
#   despesas_assis_social <dbl>, despesas_saude <dbl>

Outro uso útil de slice é fatiar observações extremas – os 10 mais populosos municípios, ou os 15 que menos gastaram em saúde. Para isso, precisamos usar slice junto de outra função, arrange, que serve para ordenar as observações de um banco pelos valores de uma ou mais variáveis. Se quisermos ordenar os municípios mineiros do menos ao mais populoso, por exemplo, usamos:

arrange(banco, populacao)

# A tibble: 808 × 10
    ...1 uf    municipio          populacao total_despesas despesas_legislativas
   <dbl> <chr> <chr>                  <dbl>          <dbl>                 <dbl>
 1   740 MG    Serra da Saudade         807       8633423.               351802.
 2   163 MG    Cedro do Abaete         1199       7684621.               348019.
 3   296 MG    Grupiara                1373      11917026.               542470.
 4   247 MG    Doresopolis             1454       9965495.               625317.
 5   516 MG    Paiva                   1549       7911283.               496032.
 6    33 MG    Antonio Prado de …      1653       7995453.               336517.
 7   195 MG    Consolacao              1732       8730656.               396476.
 8   527 MG    Passabem                1739       7974304.               477376.
 9   666 MG    Santo Antonio do …      1771       8207188.               350303.
10   544 MG    Pedro Teixeira          1785       7384735.               398428.
# ℹ 798 more rows
# ℹ 4 more variables: despesas_administrativas <dbl>, despesas_seguranca <dbl>,
#   despesas_assis_social <dbl>, despesas_saude <dbl>

Para ordená-los do mais ao menos populoso basta incluir um sinal - na frente do nome da variável (isso será lido como o inverso):

arrange(banco, -populacao)

# A tibble: 808 × 10
    ...1 uf    municipio          populacao total_despesas despesas_legislativas
   <dbl> <chr> <chr>                  <dbl>          <dbl>                 <dbl>
 1    61 MG    Belo Horizonte       2395785    6917817946.            117191852.
 2   781 MG    Uberlandia            619536    1308373532              24731905 
 3   196 MG    Contagem              613815    1092061842.             29570662.
 4   391 MG    Juiz de Fora          525225    1052445814.             15507234.
 5    65 MG    Betim                 388873    1190141919.             43695221.
 6   471 MG    Montes Claros         370216     545723569.             10919003.
 7   603 MG    Ribeirao das Neves    303029     306671476.              7734594.
 8   780 MG    Uberaba               302623     666251559.             19135916.
 9   294 MG    Governador Valada…    266190     559832791.              8896911.
10   336 MG    Ipatinga              243541     531322648.             19045016.
# ℹ 798 more rows
# ℹ 4 more variables: despesas_administrativas <dbl>, despesas_seguranca <dbl>,
#   despesas_assis_social <dbl>, despesas_saude <dbl>
…
# A tibble: 4 × 10
   ...1 uf    municipio          populacao total_despesas despesas_legislativas
  <dbl> <chr> <chr>                  <dbl>          <dbl>                 <dbl>
1    65 MG    Betim                 388873    1190141919.             43695221.
2   471 MG    Montes Claros         370216     545723569.             10919003.
3   603 MG    Ribeirao das Neves    303029     306671476.              7734594.
4   780 MG    Uberaba               302623     666251559.             19135916.
# ℹ 4 more variables: despesas_administrativas <dbl>, despesas_seguranca <dbl>,
#   despesas_assis_social <dbl>, despesas_saude <dbl>

Municípios que não gastaram nenhum real em segurança:

filter(banco, despesas_seguranca == 0)

# A tibble: 249 × 10
    ...1 uf    municipio          populacao total_despesas despesas_legislativas
   <dbl> <chr> <chr>                  <dbl>          <dbl>                 <dbl>
 1     1 MG    Abadia dos Dourad…      6743      14556417.               674132.
 2    14 MG    Albertina               2924       9124485.               435056.
 3    25 MG    Alvinopolis            15212      19635797.               591043.
 4    26 MG    Alvorada de Minas       3549      20424866.               507389.
 5    27 MG    Amparo do Serra         4910      10007480                343099 
 6    29 MG    Andrelandia            12153      17353942.               498864.
 7    31 MG    Antonio Carlos         11151      15179265.               470044.
 8    32 MG    Antonio Dias            9493      19399738.               890663.
 9    33 MG    Antonio Prado de …      1653       7995453.               336517.
10    37 MG    Araponga                8188      11839859.               441492.
# ℹ 239 more rows
# ℹ 4 more variables: despesas_administrativas <dbl>, despesas_seguranca <dbl>,
#   despesas_assis_social <dbl>, despesas_saude <dbl>

Selecionar

Também já vimos como selecionar variáveis usando select. No geral, funciona assim:

select(banco, populacao) # seleciona a variavel populacao

# A tibble: 808 × 1
   populacao
       <dbl>
 1      6743
 2     22740
 3     13306
 4      3925
 5     10093
 6     14803
 7      2015
 8      4129
 9     18575
10     12850
# ℹ 798 more rows

Mas podemos combiná-la com algumas funções auxiliares. Basicamente, essas funções procuram por alguma palavra no nome das variáveis e, se as encontra (TRUE) em algum caso, as seleciona. Por exemplo, para selecionar todas as variáveis que tenham a palavra “despesa” no nome, basta usar:

select(banco, contains("despesa"))

# A tibble: 808 × 6
   total_despesas despesas_legislativas despesas_administrativas
            <dbl>                 <dbl>                    <dbl>
 1      14556417.               674132.                 2038985.
 2      32239908.              1096878.                 4444877.
 3      21666788                516725.                 1928409.
 4      10470382.               389075.                 1009928.
 5      13689330.               776842.                 2165173.
 6      17321215.               726095.                 2347659.
 7      12535291.               685995.                 3047432.
 8      11269795                376652                  1696887 
 9      23760572.              1104696.                 2034345.
10      16591827.               664422.                 1481967.
# ℹ 798 more rows
# ℹ 3 more variables: despesas_seguranca <dbl>, despesas_assis_social <dbl>,
#   despesas_saude <dbl>
…
[1] "x e' maior que y"

Praticar essas habilidades é essencial para poder limpar dados com fluência. Uma vez que você domine essas ferramentas, arrumar qualquer banco torna-se questão de poucos minutos.

Agrupar

Além de manipular variáveis diretamente, muitas vezes precisamos realizar operações agrupadas – calcular a média do gasto per capita por porte do município, por exemplo. A função group_by serve exatamente para isso. A título de exemplo, suponha que queremos calcular o gasto per capito médio de municípios ricos e pobres (variável que criamos anteriormente):

banco <- group_by(banco, nova_var)
banco <- mutate(banco, gasto_pc_medio = mean(gasto_per_capita))
banco

# A tibble: 69 × 8
# Groups:   nova_var [2]
   municipio       populacao total_despesas nova_var    gasto_per_capita
   <chr>               <dbl>          <dbl> <chr>                  <dbl>
 1 Abaete              22740      32239908. Mais pobres            1418.
 2 Abre Campo          13306      21666788  Mais pobres            1628.
 3 Acaiaca              3925      10470382. Mais ricos             2668.
 4 Acucena             10093      13689330. Mais pobres            1356.
 5 Agua Boa            14803      17321215. Mais pobres            1170.
 6 Agua Comprida        2015      12535291. Mais ricos             6221.
 7 Aguanil              4129      11269795  Mais ricos             2729.
 8 Aguas Formosas      18575      23760572. Mais pobres            1279.
 9 Aguas Vermelhas     12850      16591827. Mais pobres            1291.
10 Aimores             24937      42297659. Mais pobres            1696.
# ℹ 59 more rows
# ℹ 3 more variables: gasto_per_capita_log <dbl>, gasto_per_capita_log10 <dbl>,
#   gasto_pc_medio <dbl>
…
