electionsBR: versão 0.3.0 | Fernando Meireles
…
# Instala a nova versão do pacote 
# (é preciso descomentar a linha abaixo)
# install.packages("electionsBR")

# Carrega o pacote
library(electionsBR)

# Pega dados de candidaturas em 2010 apenas para Minas Gerais
mg2010 <- candidate_fed(2010, uf = "MG")

# Um panorama dos dados
mg2010

## # A tibble: 1,789 × 43
##    DATA_GERACAO HORA_GERACAO ANO_ELEICAO NUM_TURNO DESCRICAO_ELEICAO
##           <chr>        <chr>       <chr>     <chr>             <chr>
## 1    19/02/2016     19:56:37        2010         1     ELEIÇÕES 2010
## 2    19/02/2016     19:56:37        2010         1     ELEIÇÕES 2010
## 3    19/02/2016     19:56:37        2010         1     ELEIÇÕES 2010
## 4    19/02/2016     19:56:37        2010         1     ELEIÇÕES 2010
## 5    19/02/2016     19:56:37        2010         1     ELEIÇÕES 2010
## 6    19/02/2016     19:56:37        2010         1     ELEIÇÕES 2010
## 7    19/02/2016     19:56:37        2010         1     ELEIÇÕES 2010
## 8    19/02/2016     19:56:37        2010         1     ELEIÇÕES 2010
## 9    19/02/2016     19:56:37        2010         1     ELEIÇÕES 2010
## 10   19/02/2016     19:56:37        2010         1     ELEIÇÕES 2010
## # ... with 1,779 more rows, and 38 more variables: SIGLA_UF <chr>,
## #   SIGLA_UE <chr>, DESCRICAO_UE <chr>, CODIGO_CARGO <chr>,
## #   DESCRICAO_CARGO <chr>, NOME_CANDIDATO <chr>,
## #   SEQUENCIAL_CANDIDATO <chr>, NUMERO_CANDIDATO <chr>,
## #   CPF_CANDIDATO <chr>, NOME_URNA_CANDIDATO <chr>,
## #   COD_SITUACAO_CANDIDATURA <chr>, DES_SITUACAO_CANDIDATURA <chr>,
## #   NUMERO_PARTIDO <chr>, SIGLA_PARTIDO <chr>, NOME_PARTIDO <chr>,
## #   CODIGO_LEGENDA <chr>, SIGLA_LEGENDA <chr>, COMPOSICAO_LEGENDA <chr>,
## #   NOME_COLIGACAO <chr>, CODIGO_OCUPACAO <chr>, DESCRICAO_OCUPACAO <chr>,
…
