Usando R - 3 Manipulação
…
# Seleciona apenas variaveis numericas
select(capitais, where(is.numeric))

# Seleciona variaveis numericas e 'capital'
select(capitais, capital, where(is.numeric))

3.2.3 Criar e modificar variáveis

O dplyr não serve apenas para filtrar e selecionar observações e variáveis. Com mutate, podemos alterar variáveis ou adicionar novas a um banco (elas são incluídas no fim do banco, logo após todas as demais). Podemos usá-la, por exemplo, para calcular a despesa total per capita das capitais brasileiras em 2012 – que é igual a despesas total dividida pelo número de habitantes de cada capital.

# Cria a variavel despesa_per_capita
cap1 <- mutate(capitais, despesa_per_capita = despesa_total / populacao)
select(cap1, capital, despesa_total, populacao, despesa_per_capita)

# A tibble: 26 × 4
   capital        despesa_total populacao despesa_per_capita
   <chr>                  <dbl>     <dbl>              <dbl>
 1 ARACAJU          1150364953.    587701              1957.
 2 BELEM            2110549149    1410430              1496.
 3 BELO HORIZONTE   6917817946.   2395785              2887.
 4 BOA VISTA         491953689.    296959              1657.
 5 CAMPO GRANDE     2290844087.    805397              2844.
 6 CUIABA           1302650057.    561329              2321.
 7 CURITIBA         5115609915.   1776761              2879.
 8 FLORIANOPOLIS    1080743166.    433158              2495.
 9 FORTALEZA        4137588203.   2500194              1655.
10 GOIANIA          2952160894.   1333767              2213.
# ℹ 16 more rows

Como mostra o exemplo anterior, só precisamos passar o nome do banco para a função, o nome da nova variável a ser criada, sem aspas, e o conteúdo dela – que pode ser o resultado de alguma operação aritmética em cima de uma das variáveis do banco. Além da economia de caracteres, a função mutate consegue usar as variáveis já existentes do banco para criar uma nova. Intuitivamente, o que ela faz é nos dar acesso às demais variáveis de forma vetorizada: se quisermos criar uma nova variável que seja igual a o logaritmo natural da variável população, portanto, mutate aplicará o log a cada elemento da variável populacao.

# Cria uma variavel que e' igual ao log de populacao
cap_log <- mutate(capitais, log_populacao = log(populacao))
select(cap_log, capital, log_populacao)

# A tibble: 26 × 2
   capital        log_populacao
   <chr>                  <dbl>
 1 ARACAJU                 13.3
 2 BELEM                   14.2
 3 BELO HORIZONTE          14.7
 4 BOA VISTA               12.6
 5 CAMPO GRANDE            13.6
 6 CUIABA                  13.2
 7 CURITIBA                14.4
 8 FLORIANOPOLIS           13.0
 9 FORTALEZA               14.7
10 GOIANIA                 14.1
# ℹ 16 more rows
…
Para além desses usos, mutate também pode ser usada para criar variáveis que tenham algum valor único, isto é, que se repete para todas as observações. Imagine, por exemplo, que queremos criar uma variável que indique o ano à nossa base capitais. Para isso, podemos usar mutate da seguinte forma:

# Cria uma variavel indicando o ano
mutate(capitais, ano = 2012)

Como você já deve ter notado, mutate sempre retorna todas as variáveis da base original e adiciona as recém-criadas no final do banco. Podemos alterar esse comportamento por meio de dois argumentos: .keep, que indica quais variáveis queremos manter (o padrão é all); e .before ou .after. Para manter apenas as variáveis criadas, por exemplo, podemos usar .keep = "none":

mutate(capitais, 
    ano = 2012, 
    populacao = populacao / 1000, 
    .keep = "none"
)

# A tibble: 26 × 2
   populacao   ano
       <dbl> <dbl>
 1      588.  2012
 2     1410.  2012
 3     2396.  2012
 4      297.  2012
 5      805.  2012
 6      561.  2012
 7     1777.  2012
 8      433.  2012
 9     2500.  2012
10     1334.  2012
# ℹ 16 more rows

E, para posicionar as novas variáveis antes do nome de alguma variável, usamos .before (.after funciona de maneira similar):

mutate(capitais, ano = 2012, .before = regiao)

# A tibble: 26 × 9
     ano regiao     uf    capital populacao despesa_total despesa_assistencia_…¹
   <dbl> <chr>      <chr> <chr>       <dbl>         <dbl>                  <dbl>
 1  2012 Nordeste   SE    ARACAJU    587701   1150364953.              31383656.
 2  2012 Norte      PA    BELEM     1410430   2110549149               58105215 
 3  2012 Sudeste    MG    BELO H…   2395785   6917817946.             172347581.
 4  2012 Norte      RR    BOA VI…    296959    491953689.              14018664.
 5  2012 Centro-Oe… MS    CAMPO …    805397   2290844087.              39604187.
 6  2012 Centro-Oe… MT    CUIABA     561329   1302650057.              32016290.
 7  2012 Sul        PR    CURITI…   1776761   5115609915.             117962804.
 8  2012 Sul        SC    FLORIA…    433158   1080743166.              33082667.
 9  2012 Nordeste   CE    FORTAL…   2500194   4137588203.              78034074.
10  2012 Centro-Oe… GO    GOIANIA   1333767   2952160894.              15382878.
# ℹ 16 more rows
# ℹ abbreviated name: ¹​despesa_assistencia_social
# ℹ 2 more variables: despesa_saude <dbl>, despesa_educacao <dbl>
…
Para os casos em que temos múltiplas condições para testar – imagine, por exemplo, termos de criar uma variável que indique o porte das capitais em cinco faixas –, podemos usar case_when, que é uma espécie de combinação de vários if_else. Para usá-la, passamos para ela uma sequência de condições e valores, separados por vírgula, que são testadas em sequência – note que o primeiro valor que satisfizer a condição será atribuído à nova variável. Um exemplo:

# Cria uma variavel que indica o porte das capitais
porte <- mutate(capitais, porte = case_when(
  populacao < 500000 ~ "Capital de menor porte",
  populacao < 1000000 ~ "Capital de porte intermediario",
  populacao < 2000000 ~ "Capital de grande porte",
  populacao < 5000000 ~ "Capital de grande porte II",
  .default = "Capital de grande porte III"
))

select(porte, capital, populacao, porte)

# A tibble: 26 × 3
   capital        populacao porte                         
   <chr>              <dbl> <chr>                         
 1 ARACAJU           587701 Capital de porte intermediario
 2 BELEM            1410430 Capital de grande porte       
 3 BELO HORIZONTE   2395785 Capital de grande porte II    
 4 BOA VISTA         296959 Capital de menor porte        
 5 CAMPO GRANDE      805397 Capital de porte intermediario
 6 CUIABA            561329 Capital de porte intermediario
 7 CURITIBA         1776761 Capital de grande porte       
 8 FLORIANOPOLIS     433158 Capital de menor porte        
 9 FORTALEZA        2500194 Capital de grande porte II    
10 GOIANIA          1333767 Capital de grande porte       
# ℹ 16 more rows
…
A base retornada é bem menor, e preserva apenas uma observação por região (para quem usa outros softwares de análise de dados, isto é o equivalente a agregar informações). Fundamental nesse exemplo, para calcular a população total por região usamos summarise em conjunto com group_by. Isso é necessário porque, se usássemos apenas summarise(capitais, populacao_total = sum(populacao)), o R somaria a população de todas as capitais, sem considerar a região a que elas pertencem. Dizendo de outra forma, group_by indica para a função summarise que qualquer operação de resumo de variáveis devem ser feitas dentro dos grupos indicados por ela.

Por si só, group_by não altera nada na base de dados usada, isto é, nenhuma observação ou coluna é alterada. Ao contrário, o que ela faz é um tipo de modificação interna em uma base: é como se ela dividisse um banco em vários sub-bancos especificados por uma ou mais variáveis. Para ver se uma base foi agrupada, basta executar o seu objeto:

capitais_agrupadas_regiao <- group_by(capitais, regiao)
capitais_agrupadas_regiao

# A tibble: 26 × 8
# Groups:   regiao [5]
   regiao       uf    capital     populacao despesa_total despesa_assistencia_…¹
   <chr>        <chr> <chr>           <dbl>         <dbl>                  <dbl>
 1 Nordeste     SE    ARACAJU        587701   1150364953.              31383656.
 2 Norte        PA    BELEM         1410430   2110549149               58105215 
 3 Sudeste      MG    BELO HORIZ…   2395785   6917817946.             172347581.
 4 Norte        RR    BOA VISTA      296959    491953689.              14018664.
 5 Centro-Oeste MS    CAMPO GRAN…    805397   2290844087.              39604187.
 6 Centro-Oeste MT    CUIABA         561329   1302650057.              32016290.
 7 Sul          PR    CURITIBA      1776761   5115609915.             117962804.
 8 Sul          SC    FLORIANOPO…    433158   1080743166.              33082667.
 9 Nordeste     CE    FORTALEZA     2500194   4137588203.              78034074.
10 Centro-Oeste GO    GOIANIA       1333767   2952160894.              15382878.
# ℹ 16 more rows
# ℹ abbreviated name: ¹​despesa_assistencia_social
# ℹ 2 more variables: despesa_saude <dbl>, despesa_educacao <dbl>
…
Embora group_by seja mais frequentemente usada em conjunto com summarise, podemos combiná-la com mutate. Imagine, por exemplo, que seja necessário adicionar uma variável à base capitais que seja igual à população das capitais de cada região, isto é, uma variável que some a população de todas as capitais de cada região (e.g., população de Porto Alegre + população de Curitiba + população de Florianópolis para a região Sul). Como fazemos isso? Usamos group_by junto de mutate:

# Agrupa o banco capitais por regiao
cap_regiao <- group_by(capitais, regiao)

# Soma a populacao das capitais
cap_regiao <- mutate(cap_regiao, pop_regiao = sum(populacao))

# Resultado (usando select para selecionar algumas variaveis)
select(cap_regiao, regiao, capital, pop_regiao)

# A tibble: 26 × 3
# Groups:   regiao [5]
   regiao       capital        pop_regiao
   <chr>        <chr>               <dbl>
 1 Nordeste     ARACAJU          11737204
 2 Norte        BELEM             5017906
 3 Sudeste      BELO HORIZONTE   20495922
 4 Norte        BOA VISTA         5017906
 5 Centro-Oeste CAMPO GRANDE      2700493
 6 Centro-Oeste CUIABA            2700493
 7 Sul          CURITIBA          3626633
 8 Sul          FLORIANOPOLIS     3626633
 9 Nordeste     FORTALEZA        11737204
10 Centro-Oeste GOIANIA           2700493
# ℹ 16 more rows
…
# Processo para transformar 50 variaveis (exemplo hipotetico)
df <- mutate(df, var1 = log(var1),
             var2 = log(var2),
             var3 = log(var3),
             ... # O codigo continuaria ate chegarmos em var50
             )

Para evitar as repetições de código, o dplyr oferece uma função auxiliar chamada across para aplicar uma operação a múltiplas variáveis. Seu uso é ligeiramente diferente do que vimos até agora:

# Transforma em logaritmo todas as variaveis numericas
cap <- mutate(capitais, across(where(is.numeric), log))
select(cap, where(is.numeric))

# A tibble: 26 × 5
   populacao despesa_total despesa_assistencia_…¹ despesa_saude despesa_educacao
       <dbl>         <dbl>                  <dbl>         <dbl>            <dbl>
 1      13.3          20.9                   17.3          19.8             18.9
 2      14.2          21.5                   17.9          20.2             19.7
 3      14.7          22.7                   19.0          21.4             20.9
 4      12.6          20.0                   16.5          18.5             18.5
 5      13.6          21.6                   17.5          20.4             20.0
 6      13.2          21.0                   17.3          19.7             19.4
 7      14.4          22.4                   18.6          20.8             20.5
 8      13.0          20.8                   17.3          19.2             19.3
 9      14.7          22.1                   18.2          21.0             20.4
10      14.1          21.8                   16.5          20.7             20.2
# ℹ 16 more rows
# ℹ abbreviated name: ¹​despesa_assistencia_social
…
