Pós-Estratificação
…
data(census06)
data(svy)
```

---
# Exploração

```r
as_tibble(census06)
```

```
## # A tibble: 2,940 × 9
##    stateid region   age   gXr  educ pvote religcon libcon     n
##      <int>  <int> <int> <int> <int> <dbl>    <dbl>  <dbl> <int>
##  1       1      3     1     1     1  60.9     41.0   32.5     5
##  2       1      3     1     1     2  60.9     41.0   32.5     8
##  3       1      3     1     1     3  60.9     41.0   32.5     5
##  4       1      3     1     1     4  60.9     41.0   32.5     3
##  5       1      3     1     2     1  60.9     41.0   32.5     3
##  6       1      3     1     2     2  60.9     41.0   32.5     2
##  7       1      3     1     2     3  60.9     41.0   32.5     4
##  8       1      3     1     2     4  60.9     41.0   32.5     2
##  9       1      3     1     3     2  60.9     41.0   32.5     1
## 10       1      3     1     4     1  60.9     41.0   32.5     1
## # … with 2,930 more rows
```
…
---
# Pós-estrafica

```r
census06 %>%
  group_by(state) %>%
  mutate(prop = n / sum(n)) %>%
  summarise(estimate = sum(prop * pred, na.rm = T), .groups = "drop")
```

```
## # A tibble: 48 × 2
##    state estimate
##    <chr>    <dbl>
##  1 AL       0.138
##  2 AR       0.127
##  3 AZ       0.282
##  4 CA       0.381
##  5 CO       0.360
##  6 CT       0.415
##  7 DE       0.379
##  8 FL       0.274
##  9 GA       0.209
## 10 IA       0.314
## # … with 38 more rows
```
…
