Dados eleitorais com o electionsBR
…
O TSE disponibiliza uma tabela com várias informações sobre candidaturas, incluindo seus resultados na totalização dos votos (i.e., se foram ou não eleitos e eleitas). Com o electionsBR, basta usar elections_tse() com type = "candidate" para baixar os dados:

# Carrega pacotes
if (!require(pacman)) install.packages("pacman")
pacman::p_load("electionsBR", "tidyverse", "geobr")

# Baixa os dados
eleitos <- elections_tse(year = 2024, type = "candidate")

As variáveis que nos interessam são essas:

eleitos %>%
    select(NM_UE, SG_UE, SG_PARTIDO, DS_CARGO, DS_SIT_TOT_TURNO)

# A tibble: 463,598 × 5
  NM_UE       SG_UE SG_PARTIDO    DS_CARGO DS_SIT_TOT_TURNO
  <chr>       <chr> <chr>         <chr>    <chr>           
1 BRASILÉIA   01058 SOLIDARIEDADE VEREADOR NÃO ELEITO      
2 BRASILÉIA   01058 SOLIDARIEDADE VEREADOR NÃO ELEITO      
3 BRASILÉIA   01058 SOLIDARIEDADE VEREADOR NÃO ELEITO      
4 MÂNCIO LIMA 01090 PSDB          VEREADOR NÃO ELEITO      
5 MÂNCIO LIMA 01090 CIDADANIA     PREFEITO #NULO#          
# ℹ 463,593 more rows

Com elas, conseguimos saber, para cada município, o percentual de vereadores e vereadoras eleitos e eleitas pelo PT (claro, usando algumas funções antes):

eleitos_pt <- eleitos %>%
    filter(NR_TURNO == 1) %>%
    filter(DS_CARGO == "VEREADOR") %>%
    filter(DS_SIT_TOT_TURNO %in% c("ELEITO POR QP", "ELEITO POR MÉDIA")) %>%
    mutate(SG_UE = as.numeric(SG_UE)) %>%
    group_by(NM_UE, SG_UE) %>%
    summarise(pct_vereadores_pt = sum(SG_PARTIDO == "PT") / n()) %>%
    arrange(desc(pct_vereadores_pt))

eleitos_pt

# A tibble: 5,531 × 3
# Groups:   NM_UE [5,263]
  NM_UE           SG_UE pct_vereadores_pt
  <chr>           <dbl>             <dbl>
1 ANÍSIO DE ABREU 10138             1    
2 BREJO DO PIAUÍ  10642             1    
3 IPAPORANGA      13340             1    
4 URUOCA          15792             0.889
5 COCAL DOS ALVES 12696             0.778
# ℹ 5,526 more rows
…
